{
    "makukh_personal_discount_request": {
        "column": {
            "discount_request_id": true,
            "product_id": true,
            "customer_id": true,
            "name": true,
            "email": true,
            "message": true,
            "status": true,
            "store_id": true,
            "created_at": true,
            "updated_at": true
        },
        "index": {
            "MAKUKH_PERSONAL_DISCOUNT_REQUEST_PRODUCT_ID": true,
            "MAKUKH_PERSONAL_DISCOUNT_REQUEST_CUSTOMER_ID": true,
            "MAKUKH_PERSONAL_DISCOUNT_REQUEST_STORE_ID": true
        },
        "constraint": {
            "PRIMARY": true,
            "FK_68639DD926623E304E1418089814DD13": true,
            "FK_5BBB19523714F56945A93C55FDC5C179": true,
            "FK_43621618F493BC82176FE6E5D92F32E9": true
        }
    }
}
